id;name;details;jhi_order;is_finished;notes
1;Home;Corporate Human;11674;true;Strategist Refined
2;Direct withdrawal;compress Specialist Buckinghamshire;26153;false;Future-proofed Russian
3;Gorgeous silver Interactions;Account;18584;false;Sports withdrawal
4;eco-centric;application neural Principal;22974;false;primary
5;invoice maximize International;Account full-range;52271;false;teal New Australia
6;attitude;card;54633;true;sensor
7;Chief;Mexico Keyboard Beauty;79825;true;clear-thinking interface
8;index;Ohio withdrawal;36256;false;methodologies
9;auxiliary;cyan;11989;false;Electronics extend
10;wireless Buckinghamshire;Consultant Grocery;29775;true;neutral
