id;amount;details;receipt_date
1;18745;microchip;2022-02-01
2;34955;Pitcairn 1080p matrix;2022-02-01
3;2644;Concrete;2022-02-01
4;37028;Advanced panel Division;2022-02-01
5;17797;payment;2022-02-01
6;5254;Avon Viaduct;2022-02-01
7;54341;Games;2022-02-01
8;22755;Ergonomic withdrawal;2022-02-01
9;52065;Organic;2022-02-01
10;36081;Legacy Dollar bus;2022-02-01
